spi_system.vcd
$date
	Fri Jun 19 17:11:07 2026
$end
$version
	Icarus Verilog
$end
$timescale
	1s
$end
$scope module tb_system $end
$var wire 1 ! rx_valid $end
$var wire 8 " data_in [7:0] $end
$var reg 8 # address [7:0] $end
$var reg 1 $ clk $end
$var reg 8 % data_out [7:0] $end
$var reg 1 & en $end
$var reg 1 ' rst $end
$var reg 1 ( rx_en $end
$var reg 2 ) slave_sel [1:0] $end
$var reg 1 * tx_en $end
$scope module dut $end
$var wire 8 + address [7:0] $end
$var wire 1 $ clk $end
$var wire 8 , data_out [7:0] $end
$var wire 1 & en $end
$var wire 1 ' rst $end
$var wire 1 ( rx_en $end
$var wire 2 - slave_sel [1:0] $end
$var wire 1 * tx_en $end
$var wire 1 . sclk $end
$var wire 1 ! rx_valid $end
$var wire 1 / mosi $end
$var wire 1 0 miso3 $end
$var wire 1 1 miso2 $end
$var wire 1 2 miso1 $end
$var wire 1 3 miso0 $end
$var wire 1 4 miso $end
$var wire 8 5 data_in [7:0] $end
$var wire 4 6 cs_n [3:0] $end
$var wire 1 7 cs_active $end
$scope module master $end
$var wire 1 8 CPHA $end
$var wire 1 9 CPOL $end
$var wire 8 : address [7:0] $end
$var wire 1 $ clk $end
$var wire 8 ; data_out [7:0] $end
$var wire 1 & en $end
$var wire 1 4 miso $end
$var wire 1 ' rst $end
$var wire 1 ( rx_en $end
$var wire 1 * tx_en $end
$var reg 8 < bit_count [7:0] $end
$var reg 8 = count [7:0] $end
$var reg 1 7 cs_active $end
$var reg 8 > data_in [7:0] $end
$var reg 1 ? is_write $end
$var reg 1 / mosi $end
$var reg 8 @ rx_data [7:0] $end
$var reg 1 A rx_en_reg $end
$var reg 1 ! rx_valid $end
$var reg 1 . sclk $end
$var reg 16 B tx_data [15:0] $end
$var reg 1 C tx_en_reg $end
$upscope $end
$scope module slave0 $end
$var wire 1 D cs_n $end
$var wire 1 / mosi $end
$var wire 1 ' rst $end
$var wire 1 . sclk $end
$var wire 1 3 miso $end
$var reg 8 E address [7:0] $end
$var reg 8 F address_shift [7:0] $end
$var reg 8 G bit_count [7:0] $end
$var reg 8 H data_out [7:0] $end
$var reg 1 I miso_en $end
$var reg 1 J miso_reg $end
$var reg 1 K rw $end
$var reg 8 L rx_data [7:0] $end
$var reg 8 M tx_data [7:0] $end
$scope begin genblk1 $end
$upscope $end
$upscope $end
$scope module slave1 $end
$var wire 1 N cs_n $end
$var wire 1 / mosi $end
$var wire 1 ' rst $end
$var wire 1 . sclk $end
$var wire 1 2 miso $end
$var reg 8 O address [7:0] $end
$var reg 8 P address_shift [7:0] $end
$var reg 8 Q bit_count [7:0] $end
$var reg 8 R data_out [7:0] $end
$var reg 1 S miso_en $end
$var reg 1 T miso_reg $end
$var reg 1 U rw $end
$var reg 8 V rx_data [7:0] $end
$var reg 8 W tx_data [7:0] $end
$scope begin genblk1 $end
$upscope $end
$upscope $end
$scope module slave2 $end
$var wire 1 X cs_n $end
$var wire 1 / mosi $end
$var wire 1 ' rst $end
$var wire 1 . sclk $end
$var wire 1 1 miso $end
$var reg 8 Y address [7:0] $end
$var reg 8 Z address_shift [7:0] $end
$var reg 8 [ bit_count [7:0] $end
$var reg 8 \ data_out [7:0] $end
$var reg 1 ] miso_en $end
$var reg 1 ^ miso_reg $end
$var reg 1 _ rw $end
$var reg 8 ` rx_data [7:0] $end
$var reg 8 a tx_data [7:0] $end
$scope begin genblk1 $end
$upscope $end
$upscope $end
$scope module slave3 $end
$var wire 1 b cs_n $end
$var wire 1 / mosi $end
$var wire 1 ' rst $end
$var wire 1 . sclk $end
$var wire 1 0 miso $end
$var reg 8 c address [7:0] $end
$var reg 8 d address_shift [7:0] $end
$var reg 8 e bit_count [7:0] $end
$var reg 8 f data_out [7:0] $end
$var reg 1 g miso_en $end
$var reg 1 h miso_reg $end
$var reg 1 i rw $end
$var reg 8 j rx_data [7:0] $end
$var reg 8 k tx_data [7:0] $end
$scope begin genblk1 $end
$upscope $end
$upscope $end
$upscope $end
$upscope $end
$enddefinitions $end
#0
$dumpvars
b1011010 k
b0 j
0i
0h
0g
b0 f
b0 e
b0 d
b0 c
1b
b1011010 a
b0 `
0_
0^
0]
b0 \
b0 [
b0 Z
b0 Y
1X
b1011010 W
b0 V
0U
0T
0S
b0 R
b0 Q
b0 P
b0 O
1N
b1011010 M
b0 L
0K
0J
0I
b0 H
b0 G
b0 F
b0 E
1D
xC
bx B
xA
bx @
x?
b0 >
bx =
bx <
b0 ;
b0 :
09
08
07
b1111 6
b0 5
z4
z3
z2
z1
z0
0/
0.
b0 -
b0 ,
b0 +
0*
b0 )
0(
1'
0&
b0 %
0$
b0 #
b0 "
0!
$end
#5
0?
0A
0C
b0 @
b0 B
b0 <
b0 =
1$
#10
0$
#15
1$
#20
0$
1&
0'
#25
1$
#30
0$
#35
1$
#40
0$
1*
b10101011 %
b10101011 ,
b10101011 ;
b10010 #
b10010 +
b10010 :
#45
1C
1$
#50
0$
#55
1$
#60
0$
0*
#65
0D
b1110 6
1/
b1001010101011 B
1?
17
0C
1$
#70
0$
#75
b1 =
1$
#80
0$
#85
b1 G
1K
b1 <
1.
b0 =
1$
#90
0$
#95
b1 =
1$
#100
0$
#105
0/
b10010101010110 B
0.
b0 =
1$
#110
0$
#115
b1 =
1$
#120
0$
#125
b10 G
b10 <
1.
b0 =
1$
#130
0$
#135
b1 =
1$
#140
0$
#145
b100101010101100 B
0.
b0 =
1$
#150
0$
#155
b1 =
1$
#160
0$
#165
b11 G
b11 <
1.
b0 =
1$
#170
0$
#175
b1 =
1$
#180
0$
#185
b1001010101011000 B
0.
b0 =
1$
#190
0$
#195
b1 =
1$
#200
0$
#205
b100 G
b100 <
1.
b0 =
1$
#210
0$
#215
b1 =
1$
#220
0$
#225
1/
b10101010110000 B
0.
b0 =
1$
#230
0$
#235
b1 =
1$
#240
0$
#245
b101 G
b1 F
b101 <
1.
b0 =
1$
#250
0$
#255
b1 =
1$
#260
0$
#265
0/
b101010101100000 B
0.
b0 =
1$
#270
0$
#275
b1 =
1$
#280
0$
#285
b110 G
b10 F
b110 <
1.
b0 =
1$
#290
0$
#295
b1 =
1$
#300
0$
#305
b1010101011000000 B
0.
b0 =
1$
#310
0$
#315
b1 =
1$
#320
0$
#325
b111 G
b100 F
b111 <
1.
b0 =
1$
#330
0$
#335
b1 =
1$
#340
0$
#345
1/
b101010110000000 B
0.
b0 =
1$
#350
0$
#355
b1 =
1$
#360
0$
#365
b1000 G
b1001 F
b1000 <
1.
b0 =
1$
#370
0$
#375
b1 =
1$
#380
0$
#385
0/
b1010101100000000 B
0.
b0 =
1$
#390
0$
#395
b1 =
1$
#400
0$
#405
b1001 G
b10010 E
b10010 F
b1001 <
1.
b0 =
1$
#410
0$
#415
b1 =
1$
#420
0$
#425
1/
b101011000000000 B
0.
b0 =
1$
#430
0$
#435
b1 =
1$
#440
0$
#445
b1010 G
b1 L
b1010 <
1.
b0 =
1$
#450
0$
#455
b1 =
1$
#460
0$
#465
0/
b1010110000000000 B
0.
b0 =
1$
#470
0$
#475
b1 =
1$
#480
0$
#485
b1011 G
b10 L
b1011 <
1.
b0 =
1$
#490
0$
#495
b1 =
1$
#500
0$
#505
1/
b101100000000000 B
0.
b0 =
1$
#510
0$
#515
b1 =
1$
#520
0$
#525
b1100 G
b101 L
b1100 <
1.
b0 =
1$
#530
0$
#535
b1 =
1$
#540
0$
#545
0/
b1011000000000000 B
0.
b0 =
1$
#550
0$
#555
b1 =
1$
#560
0$
#565
b1101 G
b1010 L
b1101 <
1.
b0 =
1$
#570
0$
#575
b1 =
1$
#580
0$
#585
1/
b110000000000000 B
0.
b0 =
1$
#590
0$
#595
b1 =
1$
#600
0$
#605
b1110 G
b10101 L
b1110 <
1.
b0 =
1$
#610
0$
#615
b1 =
1$
#620
0$
#625
0/
b1100000000000000 B
0.
b0 =
1$
#630
0$
#635
b1 =
1$
#640
0$
#645
b1111 G
b101010 L
b1111 <
1.
b0 =
1$
#650
0$
#655
b1 =
1$
#660
0$
#665
1/
b1000000000000000 B
0.
b0 =
1$
#670
0$
#675
b1 =
1$
#680
0$
#685
b10000 G
b1010101 L
b10000 <
1.
b0 =
1$
#690
0$
#695
b1 =
1$
#700
0$
#705
b0 B
0.
b0 =
1$
#710
0$
#715
b1 =
1$
#720
0$
#725
b10001 G
b10101011 H
b10101011 L
b10001 <
1.
b0 =
1$
#730
0$
#735
b1 =
1$
#740
0$
#745
b0 L
b0 F
0K
b0 G
1D
b1111 6
0/
07
0.
b0 =
1$
